sim/transcript
# vsim -c -sv_seed random -do "sim.do" rf_tb "+n50" 
# Start time: 11:27:07 on Jun 09,2024
# ** Note: (vsim-8009) Loading existing optimized design _opt2
# //  Questa Sim-64
# //  Version 2020.4 linux_x86_64 Oct 13 2020
# //
# //  Copyright 1991-2020 Mentor Graphics Corporation
# //  All Rights Reserved.
# //
# //  QuestaSim and its associated documentation contain trade
# //  secrets and commercial or financial information that are the property of
# //  Mentor Graphics Corporation and are privileged, confidential,
# //  and exempt from disclosure under the Freedom of Information Act,
# //  5 U.S.C. Section 552. Furthermore, this information
# //  is prohibited from disclosure under the Trade Secrets Act,
# //  18 U.S.C. Section 1905.
# //
# Loading sv_std.std
# Loading work.rf_tb_sv_unit(fast)
# Loading work.rf_tb(fast)
# Loading work.rf_wrap(fast)
# Loading std.standard
# Loading std.textio(body)
# Loading ieee.std_logic_1164(body)
# Loading work.reg(struct)#1
# Loading work.rf_if(fast)
# Sv_Seed = 2016338848
# do sim.do
# [CONFIG] Number of test cycles set to 50
# 
# starting test...
# rst = 0, A = 0001011110, Y = 0000000000
# rst = 0, A = 1110000100, Y = 0001011110
# rst = 0, A = 0110010100, Y = 1110000100
# rst = 0, A = 0010100110, Y = 0110010100
# rst = 0, A = 0000011100, Y = 0010100110
# rst = 0, A = 0111110010, Y = 0000011100
# rst = 0, A = 1101000010, Y = 0111110010
# rst = 0, A = 0001110111, Y = 1101000010
# rst = 0, A = 0110100101, Y = 0001110111
# rst = 0, A = 1111011111, Y = 0110100101
# rst = 0, A = 1010001100, Y = 1111011111
# rst = 0, A = 1010001101, Y = 1010001100
# rst = 0, A = 0110010000, Y = 1010001101
# rst = 0, A = 1111111111, Y = 0110010000
# rst = 0, A = 0110000011, Y = 1111111111
# rst = 0, A = 1000010111, Y = 0110000011
# rst = 0, A = 0000100001, Y = 1000010111
# rst = 0, A = 1100110001, Y = 0000100001
# rst = 0, A = 1010110111, Y = 1100110001
# rst = 0, A = 1001011000, Y = 1010110111
# rst = 0, A = 0011000001, Y = 1001011000
# rst = 0, A = 1100000011, Y = 0011000001
# rst = 0, A = 1111010011, Y = 1100000011
# rst = 0, A = 0111111111, Y = 1111010011
# rst = 0, A = 1111111111, Y = 0111111111
# rst = 0, A = 1111111100, Y = 1111111111
# rst = 0, A = 1111111011, Y = 1111111100
# rst = 0, A = 0100100101, Y = 1111111011
# rst = 0, A = 1100111010, Y = 0100100101
# rst = 0, A = 1110001010, Y = 1100111010
# rst = 0, A = 0111000011, Y = 1110001010
# rst = 0, A = 1111111111, Y = 0111000011
# rst = 0, A = 0001111101, Y = 1111111111
# rst = 0, A = 0111000110, Y = 0001111101
# rst = 0, A = 0100000001, Y = 0111000110
# rst = 0, A = 0111000001, Y = 0100000001
# rst = 0, A = 1101001101, Y = 0111000001
# rst = 0, A = 0110110001, Y = 1101001101
# rst = 0, A = 1100000101, Y = 0110110001
# rst = 0, A = 0000110101, Y = 1100000101
# rst = 0, A = 0101011101, Y = 0000110101
# rst = 0, A = 1100001101, Y = 0101011101
# rst = 0, A = 0010101110, Y = 1100001101
# rst = 0, A = 0011011010, Y = 0010101110
# rst = 0, A = 0100111110, Y = 0011011010
# rst = 0, A = 1100000011, Y = 0100111110
# rst = 0, A = 0001110101, Y = 1100000011
# rst = 0, A = 0001111100, Y = 0001110101
# rst = 0, A = 0111111111, Y = 0001111100
# rst = 0, A = 1011101001, Y = 0111111111
# test finished.
# 
# TOTAL FUNCTIONAL COVERAGE: 66.67%
# ** Note: $stop    : ../tb/rf_tb.sv(32)
#    Time: 1060 ns  Iteration: 1  Instance: /rf_tb
# Break at ../tb/rf_tb.sv line 32
# Stopped at ../tb/rf_tb.sv line 32
# End time: 11:27:08 on Jun 09,2024, Elapsed time: 0:00:01
# Errors: 0, Warnings: 0
